{
  "Earl Quinn": {
    "three habits": [
      "painting ",
      "drawing",
      "cycling"
    ],
    "score": "0"
  },
  "YoraSlavaMorgan": {
    "habits": [
      "playing",
      "Traveling",
      "swimming"
    ],
    "score": "0"
  },
  "mohomeister": {
    "habits": [
      "gaming",
      "Reading",
      "watching movies"
    ],
    "score": "3"
  }
}