{
  "YoraSlavaMorgan": {
    "habits": ["playing", "Traveling", "swimming"]
  },
  "BronislawJettaCox":{
    "habits": ["Movies", "Shows", "Football"]
  },"mohomeister":{
  "habits":["listening to music","Reading","watching movies"]
}
}

